<?xml version="1.0" encoding="UTF-8"?>
<svg xmlns="http://www.w3.org/2000/svg" xmlns:xlink="http://www.w3.org/1999/xlink" width="96" height="175" viewBox="0 0 96 175" version="1.1">
<defs>
<g>
<symbol overflow="visible" id="glyph0-0">
<path style="stroke:none;" d="M 0.796875 2.828125 L 0.796875 -11.28125 L 8.796875 -11.28125 L 8.796875 2.828125 Z M 1.703125 1.9375 L 7.90625 1.9375 L 7.90625 -10.390625 L 1.703125 -10.390625 Z M 1.703125 1.9375 "/>
</symbol>
<symbol overflow="visible" id="glyph0-1">
<path style="stroke:none;" d="M 1.578125 -11.671875 L 8.28125 -11.671875 L 8.28125 -10.34375 L 3.15625 -10.34375 L 3.15625 -6.90625 L 7.78125 -6.90625 L 7.78125 -5.578125 L 3.15625 -5.578125 L 3.15625 0 L 1.578125 0 Z M 1.578125 -11.671875 "/>
</symbol>
<symbol overflow="visible" id="glyph0-2">
<path style="stroke:none;" d="M 3.078125 -1.328125 L 8.578125 -1.328125 L 8.578125 0 L 1.171875 0 L 1.171875 -1.328125 C 1.773438 -1.953125 2.59375 -2.785156 3.625 -3.828125 C 4.65625 -4.867188 5.304688 -5.539062 5.578125 -5.84375 C 6.078125 -6.414062 6.425781 -6.894531 6.625 -7.28125 C 6.832031 -7.675781 6.9375 -8.066406 6.9375 -8.453125 C 6.9375 -9.066406 6.71875 -9.566406 6.28125 -9.953125 C 5.84375 -10.347656 5.273438 -10.546875 4.578125 -10.546875 C 4.085938 -10.546875 3.566406 -10.457031 3.015625 -10.28125 C 2.460938 -10.113281 1.875 -9.859375 1.25 -9.515625 L 1.25 -11.109375 C 1.882812 -11.359375 2.476562 -11.546875 3.03125 -11.671875 C 3.582031 -11.804688 4.085938 -11.875 4.546875 -11.875 C 5.753906 -11.875 6.71875 -11.570312 7.4375 -10.96875 C 8.15625 -10.363281 8.515625 -9.554688 8.515625 -8.546875 C 8.515625 -8.066406 8.425781 -7.613281 8.25 -7.1875 C 8.070312 -6.757812 7.742188 -6.253906 7.265625 -5.671875 C 7.140625 -5.515625 6.726562 -5.078125 6.03125 -4.359375 C 5.332031 -3.640625 4.347656 -2.628906 3.078125 -1.328125 Z M 3.078125 -1.328125 "/>
</symbol>
<symbol overflow="visible" id="glyph0-3">
<path style="stroke:none;" d="M 6.5 -6.296875 C 7.25 -6.128906 7.835938 -5.789062 8.265625 -5.28125 C 8.691406 -4.769531 8.90625 -4.140625 8.90625 -3.390625 C 8.90625 -2.242188 8.507812 -1.351562 7.71875 -0.71875 C 6.925781 -0.0820312 5.800781 0.234375 4.34375 0.234375 C 3.851562 0.234375 3.347656 0.179688 2.828125 0.078125 C 2.304688 -0.015625 1.769531 -0.160156 1.21875 -0.359375 L 1.21875 -1.875 C 1.65625 -1.625 2.132812 -1.429688 2.65625 -1.296875 C 3.175781 -1.171875 3.722656 -1.109375 4.296875 -1.109375 C 5.285156 -1.109375 6.035156 -1.300781 6.546875 -1.6875 C 7.066406 -2.082031 7.328125 -2.648438 7.328125 -3.390625 C 7.328125 -4.078125 7.085938 -4.613281 6.609375 -5 C 6.128906 -5.394531 5.457031 -5.59375 4.59375 -5.59375 L 3.234375 -5.59375 L 3.234375 -6.890625 L 4.65625 -6.890625 C 5.4375 -6.890625 6.03125 -7.039062 6.4375 -7.34375 C 6.851562 -7.65625 7.0625 -8.101562 7.0625 -8.6875 C 7.0625 -9.289062 6.847656 -9.75 6.421875 -10.0625 C 5.992188 -10.382812 5.382812 -10.546875 4.59375 -10.546875 C 4.164062 -10.546875 3.703125 -10.5 3.203125 -10.40625 C 2.710938 -10.3125 2.171875 -10.164062 1.578125 -9.96875 L 1.578125 -11.375 C 2.171875 -11.539062 2.726562 -11.664062 3.25 -11.75 C 3.78125 -11.832031 4.273438 -11.875 4.734375 -11.875 C 5.929688 -11.875 6.878906 -11.601562 7.578125 -11.0625 C 8.273438 -10.519531 8.625 -9.785156 8.625 -8.859375 C 8.625 -8.210938 8.4375 -7.664062 8.0625 -7.21875 C 7.695312 -6.769531 7.175781 -6.460938 6.5 -6.296875 Z M 6.5 -6.296875 "/>
</symbol>
<symbol overflow="visible" id="glyph0-4">
<path style="stroke:none;" d="M 6.046875 -10.296875 L 2.0625 -4.0625 L 6.046875 -4.0625 Z M 5.640625 -11.671875 L 7.625 -11.671875 L 7.625 -4.0625 L 9.28125 -4.0625 L 9.28125 -2.75 L 7.625 -2.75 L 7.625 0 L 6.046875 0 L 6.046875 -2.75 L 0.78125 -2.75 L 0.78125 -4.28125 Z M 5.640625 -11.671875 "/>
</symbol>
</g>
</defs>
<g id="surface2">
<g style="fill:rgb(0%,0%,0%);fill-opacity:1;">
  <use xlink:href="#glyph0-1" x="43.398438" y="21.539062"/>
</g>
<path style="fill-rule:nonzero;fill:rgb(50.196078%,50.196078%,0%);fill-opacity:1;stroke-width:1;stroke-linecap:round;stroke-linejoin:round;stroke:rgb(50.196078%,50.196078%,0%);stroke-opacity:1;stroke-miterlimit:10;" d="M 2 34 L 14 34 L 14 46 L 2 46 Z M 2 34 "/>
<path style="fill-rule:nonzero;fill:rgb(54.509804%,0%,0%);fill-opacity:1;stroke-width:1;stroke-linecap:round;stroke-linejoin:round;stroke:rgb(54.509804%,0%,0%);stroke-opacity:1;stroke-miterlimit:10;" d="M 8 39 L 88 39 L 88 41 L 8 41 Z M 8 39 "/>
<path style="fill-rule:nonzero;fill:rgb(0%,0%,0%);fill-opacity:1;stroke-width:1;stroke-linecap:round;stroke-linejoin:round;stroke:rgb(0%,0%,0%);stroke-opacity:1;stroke-miterlimit:10;" d="M 0 55 L 16 55 L 16 59 L 0 59 Z M 0 55 "/>
<path style="fill:none;stroke-width:1;stroke-linecap:round;stroke-linejoin:round;stroke:rgb(50.196078%,50.196078%,0%);stroke-opacity:1;stroke-miterlimit:10;" d="M 8 73 L 8 41 "/>
<path style="fill-rule:nonzero;fill:rgb(0%,0%,0%);fill-opacity:1;stroke-width:1;stroke-linecap:round;stroke-linejoin:round;stroke:rgb(0%,0%,0%);stroke-opacity:1;stroke-miterlimit:10;" d="M 16 55 L 32 55 L 32 59 L 16 59 Z M 16 55 "/>
<path style="fill:none;stroke-width:1;stroke-linecap:round;stroke-linejoin:round;stroke:rgb(50.196078%,50.196078%,0%);stroke-opacity:1;stroke-miterlimit:10;" d="M 24 73 L 24 41 "/>
<path style="fill-rule:nonzero;fill:rgb(0%,0%,0%);fill-opacity:1;stroke-width:1;stroke-linecap:round;stroke-linejoin:round;stroke:rgb(0%,0%,0%);stroke-opacity:1;stroke-miterlimit:10;" d="M 32 55 L 48 55 L 48 59 L 32 59 Z M 32 55 "/>
<path style="fill:none;stroke-width:1;stroke-linecap:round;stroke-linejoin:round;stroke:rgb(50.196078%,50.196078%,0%);stroke-opacity:1;stroke-miterlimit:10;" d="M 40 73 L 40 41 "/>
<path style="fill-rule:nonzero;fill:rgb(0%,0%,0%);fill-opacity:1;stroke-width:1;stroke-linecap:round;stroke-linejoin:round;stroke:rgb(0%,0%,0%);stroke-opacity:1;stroke-miterlimit:10;" d="M 48 55 L 64 55 L 64 59 L 48 59 Z M 48 55 "/>
<path style="fill:none;stroke-width:1;stroke-linecap:round;stroke-linejoin:round;stroke:rgb(50.196078%,50.196078%,0%);stroke-opacity:1;stroke-miterlimit:10;" d="M 56 73 L 56 41 "/>
<path style="fill-rule:nonzero;fill:rgb(0%,0%,0%);fill-opacity:1;stroke-width:1;stroke-linecap:round;stroke-linejoin:round;stroke:rgb(0%,0%,0%);stroke-opacity:1;stroke-miterlimit:10;" d="M 64 55 L 80 55 L 80 59 L 64 59 Z M 64 55 "/>
<path style="fill:none;stroke-width:1;stroke-linecap:round;stroke-linejoin:round;stroke:rgb(50.196078%,50.196078%,0%);stroke-opacity:1;stroke-miterlimit:10;" d="M 72 73 L 72 41 "/>
<path style="fill-rule:nonzero;fill:rgb(0%,0%,0%);fill-opacity:1;stroke-width:1;stroke-linecap:round;stroke-linejoin:round;stroke:rgb(0%,0%,0%);stroke-opacity:1;stroke-miterlimit:10;" d="M 80 55 L 96 55 L 96 59 L 80 59 Z M 80 55 "/>
<path style="fill:none;stroke-width:1;stroke-linecap:round;stroke-linejoin:round;stroke:rgb(50.196078%,50.196078%,0%);stroke-opacity:1;stroke-miterlimit:10;" d="M 88 73 L 88 41 "/>
<path style="fill-rule:nonzero;fill:rgb(54.509804%,0%,0%);fill-opacity:1;stroke-width:1;stroke-linecap:round;stroke-linejoin:round;stroke:rgb(54.509804%,0%,0%);stroke-opacity:1;stroke-miterlimit:10;" d="M 8 73 L 88 73 L 88 75 L 8 75 Z M 8 73 "/>
<path style="fill:none;stroke-width:1;stroke-linecap:round;stroke-linejoin:round;stroke:rgb(50.196078%,50.196078%,0%);stroke-opacity:1;stroke-miterlimit:10;" d="M 8 107 L 8 75 "/>
<path style="fill:none;stroke-width:1;stroke-linecap:round;stroke-linejoin:round;stroke:rgb(50.196078%,50.196078%,0%);stroke-opacity:1;stroke-miterlimit:10;" d="M 24 107 L 24 75 "/>
<path style="fill:none;stroke-width:1;stroke-linecap:round;stroke-linejoin:round;stroke:rgb(50.196078%,50.196078%,0%);stroke-opacity:1;stroke-miterlimit:10;" d="M 40 107 L 40 75 "/>
<g style="fill:rgb(0%,0%,0%);fill-opacity:1;">
  <use xlink:href="#glyph0-2" x="50.910156" y="96.539062"/>
</g>
<path style="fill:none;stroke-width:1;stroke-linecap:round;stroke-linejoin:round;stroke:rgb(50.196078%,50.196078%,0%);stroke-opacity:1;stroke-miterlimit:10;" d="M 56 107 L 56 75 "/>
<path style="fill:none;stroke-width:1;stroke-linecap:round;stroke-linejoin:round;stroke:rgb(50.196078%,50.196078%,0%);stroke-opacity:1;stroke-miterlimit:10;" d="M 72 107 L 72 75 "/>
<path style="fill:none;stroke-width:1;stroke-linecap:round;stroke-linejoin:round;stroke:rgb(50.196078%,50.196078%,0%);stroke-opacity:1;stroke-miterlimit:10;" d="M 88 107 L 88 75 "/>
<path style="fill-rule:nonzero;fill:rgb(54.509804%,0%,0%);fill-opacity:1;stroke-width:1;stroke-linecap:round;stroke-linejoin:round;stroke:rgb(54.509804%,0%,0%);stroke-opacity:1;stroke-miterlimit:10;" d="M 8 107 L 88 107 L 88 109 L 8 109 Z M 8 107 "/>
<path style="fill:none;stroke-width:1;stroke-linecap:round;stroke-linejoin:round;stroke:rgb(50.196078%,50.196078%,0%);stroke-opacity:1;stroke-miterlimit:10;" d="M 8 141 L 8 109 "/>
<g style="fill:rgb(0%,0%,0%);fill-opacity:1;">
  <use xlink:href="#glyph0-3" x="18.910156" y="130.539062"/>
</g>
<path style="fill:none;stroke-width:1;stroke-linecap:round;stroke-linejoin:round;stroke:rgb(50.196078%,50.196078%,0%);stroke-opacity:1;stroke-miterlimit:10;" d="M 24 141 L 24 109 "/>
<g style="fill:rgb(0%,0%,0%);fill-opacity:1;">
  <use xlink:href="#glyph0-4" x="34.910156" y="130.539062"/>
</g>
<path style="fill:none;stroke-width:1;stroke-linecap:round;stroke-linejoin:round;stroke:rgb(50.196078%,50.196078%,0%);stroke-opacity:1;stroke-miterlimit:10;" d="M 40 141 L 40 109 "/>
<path style="fill:none;stroke-width:1;stroke-linecap:round;stroke-linejoin:round;stroke:rgb(50.196078%,50.196078%,0%);stroke-opacity:1;stroke-miterlimit:10;" d="M 56 141 L 56 109 "/>
<path style="fill:none;stroke-width:1;stroke-linecap:round;stroke-linejoin:round;stroke:rgb(50.196078%,50.196078%,0%);stroke-opacity:1;stroke-miterlimit:10;" d="M 72 141 L 72 109 "/>
<path style="fill:none;stroke-width:1;stroke-linecap:round;stroke-linejoin:round;stroke:rgb(50.196078%,50.196078%,0%);stroke-opacity:1;stroke-miterlimit:10;" d="M 88 141 L 88 109 "/>
<path style="fill-rule:nonzero;fill:rgb(54.509804%,0%,0%);fill-opacity:1;stroke-width:1;stroke-linecap:round;stroke-linejoin:round;stroke:rgb(54.509804%,0%,0%);stroke-opacity:1;stroke-miterlimit:10;" d="M 8 141 L 88 141 L 88 143 L 8 143 Z M 8 141 "/>
<path style="fill:none;stroke-width:1;stroke-linecap:round;stroke-linejoin:round;stroke:rgb(50.196078%,50.196078%,0%);stroke-opacity:1;stroke-miterlimit:10;" d="M 8 175 L 8 143 "/>
<path style="fill:none;stroke-width:1;stroke-linecap:round;stroke-linejoin:round;stroke:rgb(50.196078%,50.196078%,0%);stroke-opacity:1;stroke-miterlimit:10;" d="M 24 175 L 24 143 "/>
<path style="fill:none;stroke-width:1;stroke-linecap:round;stroke-linejoin:round;stroke:rgb(50.196078%,50.196078%,0%);stroke-opacity:1;stroke-miterlimit:10;" d="M 40 175 L 40 143 "/>
<path style="fill:none;stroke-width:1;stroke-linecap:round;stroke-linejoin:round;stroke:rgb(50.196078%,50.196078%,0%);stroke-opacity:1;stroke-miterlimit:10;" d="M 56 175 L 56 143 "/>
<path style="fill:none;stroke-width:1;stroke-linecap:round;stroke-linejoin:round;stroke:rgb(50.196078%,50.196078%,0%);stroke-opacity:1;stroke-miterlimit:10;" d="M 72 175 L 72 143 "/>
<path style="fill:none;stroke-width:1;stroke-linecap:round;stroke-linejoin:round;stroke:rgb(50.196078%,50.196078%,0%);stroke-opacity:1;stroke-miterlimit:10;" d="M 88 175 L 88 143 "/>
</g>
</svg>
